<svg xmlns="http://www.w3.org/2000/svg" viewBox="0 0 41.414 22.129">
  <path id="arrow-citrus" d="M-4332.249-18459l20.413,20,19.587-20" transform="translate(4332.949 18459.715)" fill="none" stroke="inherit"/>
</svg>
