>import foo.bar.baz.Bingo
#^^^^^^ source.taxi meta.import.taxi keyword.control.import.taxi
#      ^ source.taxi meta.import.taxi
#       ^^^^^^^^^^^^^^^^^ source.taxi meta.import.taxi meta.import.declaration.taxi
>
>namespace com.acme.foo {
#^^^^^^^^^ source.taxi storage.type.taxi
#         ^^^^^^^^^^^^^^ source.taxi
#                       ^ source.taxi punctuation.definition.block.taxi
>
>   @Annotation(foo = "Bar" )
#^^^ source.taxi
#   ^ source.taxi meta.declaration.annotation.taxi punctuation.definition.annotation.taxi
#    ^^^^^^^^^^ source.taxi meta.declaration.annotation.taxi storage.type.annotation.taxi
#              ^ source.taxi meta.declaration.annotation.taxi punctuation.definition.annotation-arguments.begin.bracket.round.taxi
#               ^^^ source.taxi meta.declaration.annotation.taxi meta.annotation.parameters.taxi constant.other.key.taxi
#                  ^ source.taxi meta.declaration.annotation.taxi meta.annotation.parameters.taxi
#                   ^ source.taxi meta.declaration.annotation.taxi meta.annotation.parameters.taxi keyword.operator.assignment.taxi
#                    ^ source.taxi meta.declaration.annotation.taxi meta.annotation.parameters.taxi
#                     ^ source.taxi meta.declaration.annotation.taxi meta.annotation.parameters.taxi string.quoted.double.taxi punctuation.definition.string.begin.taxi
#                      ^^^ source.taxi meta.declaration.annotation.taxi meta.annotation.parameters.taxi string.quoted.double.taxi
#                         ^ source.taxi meta.declaration.annotation.taxi meta.annotation.parameters.taxi string.quoted.double.taxi punctuation.definition.string.end.taxi
#                          ^ source.taxi meta.declaration.annotation.taxi meta.annotation.parameters.taxi
#                           ^ source.taxi meta.declaration.annotation.taxi punctuation.definition.annotation-arguments.end.bracket.round.taxi
>   type FirstName inherits String
#^^^^^^^^^^^^^^^^^^^^^^^^^^^^^^^^^^ source.taxi
>
>   enum NumberEnum {
#^^^^^^^^^^^^^^^^^^^^^ source.taxi
>      One(1),
#^^^^^^^^^^^^^^ source.taxi
>      Two(2)
#^^^^^^^^^^^^^ source.taxi
>   }
#^^^ source.taxi
#   ^ source.taxi punctuation.definition.block.taxi
>   enum CharEnum {
#^^^ source.taxi
#   ^^^^ source.taxi meta.enum.declaration.taxi keyword.control.export.taxi
#       ^ source.taxi meta.enum.declaration.taxi
#        ^^^^^^^^ source.taxi meta.enum.declaration.taxi storage.modifier.taxi
#                ^ source.taxi meta.enum.declaration.taxi
#                 ^ source.taxi meta.enum.declaration.taxi punctuation.definition.block.taxi
>      One("A"),
#^^^^^^ source.taxi meta.enum.declaration.taxi
#      ^^^ source.taxi meta.enum.declaration.taxi variable.other.enummember.taxi
#         ^^^^^ source.taxi meta.enum.declaration.taxi
#              ^^ source.taxi meta.enum.declaration.taxi
>      Two("B")
#^^^^^^ source.taxi meta.enum.declaration.taxi
#      ^^^ source.taxi meta.enum.declaration.taxi variable.other.enummember.taxi
#         ^^^^^ source.taxi meta.enum.declaration.taxi
>   }
#^^^ source.taxi meta.enum.declaration.taxi
#   ^ source.taxi meta.enum.declaration.taxi punctuation.definition.block.taxi
>
>   type LastName inherits com.people.Names
#^^^ source.taxi
#   ^^^^ source.taxi storage.type.type.taxi
#       ^ source.taxi storage.type.type.taxi
#        ^^^^^^^^ source.taxi storage.type.type.taxi entity.name.type.class.taxi
#                ^ source.taxi storage.type.type.taxi
#                 ^^^^^^^^ source.taxi storage.type.type.taxi storage.modifier.taxi
#                         ^^^^^^^^^^^^^^^^^ source.taxi storage.type.type.taxi
>
>   [[ These are some docs ]]
#^^^ source.taxi storage.type.type.taxi
#   ^^ source.taxi storage.type.type.taxi comment.block.taxidoc.taxi punctuation.definition.comment.taxi
#     ^^^^^^^^^^^^^^^^^^^^^ source.taxi storage.type.type.taxi comment.block.taxidoc.taxi
#                          ^^ source.taxi storage.type.type.taxi comment.block.taxidoc.taxi punctuation.definition.comment.taxi
>   model Person {
#^^^ source.taxi storage.type.type.taxi
#   ^^^^^ source.taxi storage.type.type.taxi entity.name.type.class.taxi
#        ^ source.taxi storage.type.type.taxi
#         ^^^^^^ source.taxi storage.type.type.taxi entity.name.type.class.taxi
#               ^ source.taxi storage.type.type.taxi
#                ^ source.taxi storage.type.type.taxi punctuation.definition.block.taxi
>      id : PersonId inherits Int
#^^^^^^ source.taxi storage.type.type.taxi
#      ^^^ source.taxi storage.type.type.taxi variable.object.property.taxi
#         ^ source.taxi storage.type.type.taxi variable.object.property.taxi meta.type.annotation.taxi keyword.operator.type.annotation.taxi
#          ^ source.taxi storage.type.type.taxi variable.object.property.taxi meta.type.annotation.taxi
#           ^^^^^^^^ source.taxi storage.type.type.taxi variable.object.property.taxi meta.type.annotation.taxi entity.name.type.taxi
#                   ^ source.taxi storage.type.type.taxi variable.object.property.taxi meta.type.annotation.taxi
#                    ^^^^^^^^ source.taxi storage.type.type.taxi variable.object.property.taxi meta.type.annotation.taxi entity.name.type.taxi
#                            ^ source.taxi storage.type.type.taxi variable.object.property.taxi meta.type.annotation.taxi
#                             ^^^ source.taxi storage.type.type.taxi variable.object.property.taxi meta.type.annotation.taxi support.type.primitive.taxi
>      name : FirstName by column('Foo')
#^^^^^^ source.taxi storage.type.type.taxi
#      ^^^^^ source.taxi storage.type.type.taxi variable.object.property.taxi
#           ^ source.taxi storage.type.type.taxi variable.object.property.taxi meta.type.annotation.taxi keyword.operator.type.annotation.taxi
#            ^ source.taxi storage.type.type.taxi variable.object.property.taxi meta.type.annotation.taxi
#             ^^^^^^^^^ source.taxi storage.type.type.taxi variable.object.property.taxi meta.type.annotation.taxi entity.name.type.taxi
#                      ^ source.taxi storage.type.type.taxi variable.object.property.taxi meta.type.annotation.taxi
#                       ^^ source.taxi storage.type.type.taxi variable.object.property.taxi meta.type.annotation.taxi entity.name.type.taxi
#                         ^ source.taxi storage.type.type.taxi variable.object.property.taxi meta.type.annotation.taxi
#                          ^^^^^^ source.taxi storage.type.type.taxi variable.object.property.taxi meta.type.annotation.taxi entity.name.type.taxi
#                                ^^ source.taxi storage.type.type.taxi variable.object.property.taxi meta.type.annotation.taxi
#                                  ^^^ source.taxi storage.type.type.taxi variable.object.property.taxi meta.type.annotation.taxi entity.name.type.taxi
#                                     ^ source.taxi storage.type.type.taxi variable.object.property.taxi meta.type.annotation.taxi
#                                      ^ source.taxi storage.type.type.taxi variable.object.property.taxi
>   }
#^^^ source.taxi storage.type.type.taxi
#   ^ source.taxi storage.type.type.taxi punctuation.definition.block.taxi
>
>   service MyService {
#^^^ source.taxi
#   ^^^^^^^ source.taxi meta.service.taxi keyword.control.service.taxi
#          ^ source.taxi meta.service.taxi
#           ^^^^^^^^^ source.taxi meta.service.taxi entity.name.type.service.taxi
#                    ^ source.taxi meta.service.taxi
#                     ^ source.taxi meta.service.taxi punctuation.definition.block.taxi
>      // This is a line comment
#^^^^^^ source.taxi meta.service.taxi punctuation.whitespace.comment.leading.taxi
#      ^^ source.taxi meta.service.taxi comment.line.double-slash.taxi punctuation.definition.comment.taxi
#        ^^^^^^^^^^^^^^^^^^^^^^^ source.taxi meta.service.taxi comment.line.double-slash.taxi
>      operation findPeople(PersonId):Person
#^^^^^^ source.taxi meta.service.taxi
#      ^^^^^^^^^ source.taxi meta.service.taxi meta.operation.taxi keyword.control.operation.taxi
#               ^ source.taxi meta.service.taxi meta.operation.taxi
#                ^^^^^^^^^^ source.taxi meta.service.taxi meta.operation.taxi entity.name.function.operation.taxi
#                          ^ source.taxi meta.service.taxi meta.operation.taxi meta.parameters.taxi punctuation.definition.parameters.begin.taxi
#                           ^^^^^^^^ source.taxi meta.service.taxi meta.operation.taxi meta.parameters.taxi entity.name.type.taxi
#                                   ^ source.taxi meta.service.taxi meta.operation.taxi meta.parameters.taxi punctuation.definition.parameters.end.taxi
#                                    ^ source.taxi meta.service.taxi meta.operation.taxi keyword.operator.return-type.taxi
#                                     ^^^^^^ source.taxi meta.service.taxi meta.operation.taxi entity.name.type.taxi
>
>      /**
#^^^^^^ source.taxi meta.service.taxi
#      ^^ source.taxi meta.service.taxi comment.block.taxi punctuation.definition.comment.taxi
#        ^^ source.taxi meta.service.taxi comment.block.taxi
>       * This is a block
#^^^^^^^^^^^^^^^^^^^^^^^^^ source.taxi meta.service.taxi comment.block.taxi
>       * comment
#^^^^^^^^^^^^^^^^^ source.taxi meta.service.taxi comment.block.taxi
>       */
#^^^^^^^ source.taxi meta.service.taxi comment.block.taxi
#       ^^ source.taxi meta.service.taxi comment.block.taxi punctuation.definition.comment.taxi
>      operation findPeopleWithName(name : FirstName):Person[]
#^^^^^^ source.taxi meta.service.taxi
#      ^^^^^^^^^ source.taxi meta.service.taxi meta.operation.taxi keyword.control.operation.taxi
#               ^ source.taxi meta.service.taxi meta.operation.taxi
#                ^^^^^^^^^^^^^^^^^^ source.taxi meta.service.taxi meta.operation.taxi entity.name.function.operation.taxi
#                                  ^ source.taxi meta.service.taxi meta.operation.taxi meta.parameters.taxi punctuation.definition.parameters.begin.taxi
#                                   ^^^^^^^ source.taxi meta.service.taxi meta.operation.taxi meta.parameters.taxi variable.parameter.name.taxi
#                                          ^^^^^^^^^ source.taxi meta.service.taxi meta.operation.taxi meta.parameters.taxi entity.name.type.taxi
#                                                   ^ source.taxi meta.service.taxi meta.operation.taxi meta.parameters.taxi punctuation.definition.parameters.end.taxi
#                                                    ^ source.taxi meta.service.taxi meta.operation.taxi keyword.operator.return-type.taxi
#                                                     ^^^^^^ source.taxi meta.service.taxi meta.operation.taxi entity.name.type.taxi
#                                                           ^^ source.taxi meta.service.taxi meta.operation.taxi
>   }
#^^^ source.taxi meta.service.taxi
#   ^ source.taxi meta.service.taxi punctuation.definition.block.taxi
>
>   closed model MyClosedModel {
#^^^ source.taxi
#   ^^^^^^ source.taxi storage.type.type.taxi storage.type.type.taxi
#         ^^^^^^ source.taxi storage.type.type.taxi
#               ^ source.taxi storage.type.type.taxi
#                ^^^^^^^^^^^^^ source.taxi storage.type.type.taxi entity.name.type.class.taxi
#                             ^ source.taxi storage.type.type.taxi
#                              ^ source.taxi storage.type.type.taxi punctuation.definition.block.taxi
>
>   }
#^^^ source.taxi storage.type.type.taxi
#   ^ source.taxi storage.type.type.taxi punctuation.definition.block.taxi
>}
#^^ source.taxi
>